<?xml version="1.0" encoding="UTF-8" standalone="no"?>
<!-- Created with Inkscape (http://www.inkscape.org/) -->

<svg
   width="168.68436mm"
   height="171.11842mm"
   viewBox="0 0 168.68436 171.11843"
   version="1.1"
   id="svg21"
   xml:space="preserve"
   inkscape:version="1.2.1 (9c6d41e410, 2022-07-14)"
   sodipodi:docname="hackwerk4.svg"
   inkscape:export-filename="hackwerk.png"
   inkscape:export-xdpi="96"
   inkscape:export-ydpi="96"
   xmlns:inkscape="http://www.inkscape.org/namespaces/inkscape"
   xmlns:sodipodi="http://sodipodi.sourceforge.net/DTD/sodipodi-0.dtd"
   xmlns="http://www.w3.org/2000/svg"
   xmlns:svg="http://www.w3.org/2000/svg"><sodipodi:namedview
     id="namedview23"
     pagecolor="#c1c1c1"
     bordercolor="#666666"
     borderopacity="1.0"
     inkscape:showpageshadow="2"
     inkscape:pageopacity="0"
     inkscape:pagecheckerboard="true"
     inkscape:deskcolor="#d1d1d1"
     inkscape:document-units="mm"
     showgrid="false"
     inkscape:zoom="1.1397951"
     inkscape:cx="-32.023299"
     inkscape:cy="207.05476"
     inkscape:window-width="1920"
     inkscape:window-height="1009"
     inkscape:window-x="-8"
     inkscape:window-y="-8"
     inkscape:window-maximized="1"
     inkscape:current-layer="layer1" /><defs
     id="defs18"><inkscape:path-effect
       effect="bspline"
       id="path-effect9692"
       is_visible="true"
       lpeversion="1"
       weight="33.333333"
       steps="2"
       helper_size="0"
       apply_no_weight="true"
       apply_with_weight="true"
       only_selected="false" /><inkscape:path-effect
       effect="bspline"
       id="path-effect11363"
       is_visible="true"
       lpeversion="1"
       weight="33.333333"
       steps="2"
       helper_size="0"
       apply_no_weight="true"
       apply_with_weight="true"
       only_selected="false" /><inkscape:path-effect
       effect="bspline"
       id="path-effect10517"
       is_visible="true"
       lpeversion="1"
       weight="33.333333"
       steps="2"
       helper_size="0"
       apply_no_weight="true"
       apply_with_weight="true"
       only_selected="false" /><inkscape:path-effect
       effect="bspline"
       id="path-effect463"
       is_visible="true"
       lpeversion="1"
       weight="33.333333"
       steps="2"
       helper_size="0"
       apply_no_weight="true"
       apply_with_weight="true"
       only_selected="false" /><inkscape:path-effect
       effect="bspline"
       id="path-effect459"
       is_visible="true"
       lpeversion="1"
       weight="33.333333"
       steps="2"
       helper_size="0"
       apply_no_weight="true"
       apply_with_weight="true"
       only_selected="false" /><inkscape:path-effect
       effect="bspline"
       id="path-effect455"
       is_visible="true"
       lpeversion="1"
       weight="33.333333"
       steps="2"
       helper_size="0"
       apply_no_weight="true"
       apply_with_weight="true"
       only_selected="false" /><inkscape:path-effect
       effect="bspline"
       id="path-effect10517-2"
       is_visible="true"
       lpeversion="1"
       weight="33.333333"
       steps="2"
       helper_size="0"
       apply_no_weight="true"
       apply_with_weight="true"
       only_selected="false" /><inkscape:path-effect
       effect="bspline"
       id="path-effect10517-2-4"
       is_visible="true"
       lpeversion="1"
       weight="33.333333"
       steps="2"
       helper_size="0"
       apply_no_weight="true"
       apply_with_weight="true"
       only_selected="false" /></defs><g
     inkscape:groupmode="layer"
     id="layer2"
     inkscape:label="Layer 2"
     transform="translate(33.277035,27.073742)"
     style="display:inline"><rect
       style="fill:#000000;fill-opacity:1;stroke:none;stroke-width:1.88766"
       id="rect487"
       width="2.5330021"
       height="2.7919927"
       x="7.8237715"
       y="37.865105" /></g><g
     inkscape:label="Layer 1"
     inkscape:groupmode="layer"
     id="layer1"
     transform="translate(-15.627587,-2.0349633)"><path
       style="fill:none;fill-opacity:1;stroke:#000000;stroke-width:1;stroke-linecap:butt;stroke-linejoin:miter;stroke-dasharray:none;stroke-opacity:1"
       d="m 65.974243,109.88581 c 0.0052,-1.65482 0.01553,-4.96474 0.02181,-6.62835 0.0063,-1.66361 0.0085,-1.68081 -0.132071,-1.96481 -0.140581,-0.284 -0.424163,-0.83483 -0.917945,-1.0556 -0.493782,-0.22078 -1.19779,-0.11115 -1.656833,0.31664 -0.459043,0.4278 -0.672832,1.17352 -0.787259,1.8636 -0.114428,0.69008 -0.129534,1.3244 -0.662075,1.81359 -0.532541,0.48918 -1.582622,0.8335 -2.711673,0.91116 -1.12905,0.0777 -2.337089,-0.11147 -3.122953,-0.51161 -0.785864,-0.40014 -1.149375,-1.01152 -1.669306,-1.50911 -0.519932,-0.49759 -1.196357,-0.88122 -2.151247,-0.89637 -0.954891,-0.0152 -2.188018,0.33842 -2.759702,1.78233 -0.571685,1.44391 -0.481746,3.97773 0.207698,5.35898 0.689445,1.38124 1.978015,1.61007 3.122525,1.25424 1.144511,-0.35583 2.145097,-1.29622 3.674716,-1.66668 1.529619,-0.37045 3.587846,-0.17096 4.657537,0.23363 1.06969,0.40458 1.151052,1.01396 1.343191,1.64499 0.19214,0.63102 0.494936,1.28364 0.95333,1.695 0.458394,0.41135 1.072188,0.58165 1.531941,0.38928 0.459754,-0.19237 0.765806,-0.7474 0.91577,-1.03715 0.149965,-0.28974 0.143698,-0.31444 0.140532,-0.32691 -0.0032,-0.0125 -0.0032,-0.012 0.002,-1.66685 z"
       id="path453"
       inkscape:path-effect="#path-effect455"
       inkscape:original-d="m 65.969067,111.54064 c 0.01061,-3.30965 0.02098,-6.61957 0.03106,-9.92976 0.0024,-0.017 0.0047,-0.0342 0.0067,-0.0517 -0.283327,-0.55058 -0.566907,-1.10141 -0.850755,-1.65251 -0.70377,0.1099 -1.407779,0.21952 -2.112063,0.32889 -0.213534,0.74602 -0.427323,1.49174 -0.641379,2.23721 -0.01484,0.63461 -0.02994,1.26893 -0.04532,1.903 -1.049877,0.34461 -2.099958,0.68893 -3.150363,1.03301 -1.207835,-0.18887 -2.415873,-0.378 -3.62423,-0.56739 -0.363258,-0.61114 -0.726769,-1.22253 -1.090554,-1.83419 -0.676205,-0.38339 -1.352633,-0.76701 -2.029365,-1.15093 -1.232907,0.35385 -2.466034,0.70742 -3.699446,1.06073 0.09021,2.53418 0.180147,5.068 0.269822,7.6016 1.28892,0.22911 2.57749,0.45794 3.865886,0.68653 1.000919,-0.94019 2.001505,-1.88058 3.001892,-2.82129 2.058572,0.19977 4.116799,0.39926 6.174799,0.59849 0.08163,0.60967 0.162991,1.21905 0.244089,1.82817 0.303072,0.65291 0.605869,1.30553 0.908407,1.9579 0.614084,0.17057 1.227878,0.34087 1.841418,0.51091 0.306332,-0.55479 0.612383,-1.10982 0.918178,-1.66513 -0.006,-0.0244 -0.01225,-0.0491 -0.01878,-0.074 z"
       sodipodi:nodetypes="cccccccccccccccccccccc" /><path
       style="fill:none;fill-opacity:1;stroke:#000000;stroke-width:1;stroke-linecap:butt;stroke-linejoin:miter;stroke-dasharray:none;stroke-opacity:1"
       d="m 71.659291,113.17031 c 0.456342,0.006 1.368755,0.0166 1.818937,-1.05749 0.450183,-1.07414 0.4384,-3.23369 0.443437,-6.25459 0.005,-3.0209 0.0269,-6.902946 -0.38533,-9.510661 -0.412227,-2.607715 -1.258704,-3.941015 -2.460635,-5.248286 -1.201931,-1.30727 -2.759328,-2.588361 -3.898,-3.521583 -1.138672,-0.933221 -1.85856,-1.518524 -2.205691,-2.686227 -0.347131,-1.167704 -0.321202,-2.917756 -0.300929,-5.094919 0.02027,-2.177162 0.03489,-4.781299 0.04883,-6.282359 0.01395,-1.501059 0.02723,-1.898963 0.334379,-2.081739 0.307145,-0.182776 0.907837,-0.150177 1.695008,-0.111897 0.787172,0.03828 1.760773,0.08224 2.23839,0.921622 0.477618,0.839382 0.459512,2.473869 0.450431,3.712286 -0.0091,1.238417 -0.0091,2.080694 0.999789,2.477078 1.008926,0.396383 3.026495,0.347128 4.035658,0.354865 1.009162,0.0077 1.010128,0.07219 1.023368,0.758456 0.01324,0.686268 0.03875,1.994294 1.117674,2.655439 1.078926,0.661146 3.210923,0.675652 6.260642,0.630059 3.049719,-0.04559 7.016969,-0.151272 8.941497,0.552549 1.924529,0.70382 1.806538,2.216832 1.591649,7.164493 -0.214888,4.947661 -0.526669,13.329594 -0.699375,18.227494 -0.172707,4.8979 -0.206334,6.31154 -0.945692,6.98123 -0.739358,0.66968 -2.184669,0.59562 -3.140381,0.53791 -0.955712,-0.0577 -1.421786,-0.0991 -1.669304,-0.5504 -0.247519,-0.45132 -0.276202,-1.3128 -0.295947,-2.02649 -0.01975,-0.71368 -0.03055,-1.27953 -0.452914,-1.56715 -0.422366,-0.28763 -1.256519,-0.29676 -1.918256,-0.31407 -0.661736,-0.0173 -1.151038,-0.0428 -1.407122,0.62942 -0.256083,0.67225 -0.27867,2.04193 -0.861255,2.72948 -0.582586,0.68756 -1.725392,0.69322 -2.778364,0.66833 -1.052971,-0.0249 -2.016063,-0.0804 -2.500694,0.64594 -0.484631,0.72631 -0.490505,2.2341 -0.49671,3.69346 -0.0062,1.45937 -0.01274,2.87023 1.19638,3.49283 1.209122,0.62261 3.633559,0.45722 8.088231,0.34517 4.454671,-0.11206 10.939251,-0.17079 17.262705,-0.19744 6.32345,-0.0267 12.48538,-0.0212 15.96303,-0.0458 3.47765,-0.0246 4.27088,-0.0792 4.69654,-0.86974 0.42566,-0.79051 0.48401,-2.31714 0.51032,-3.6077 0.0263,-1.29057 0.0206,-2.34501 -0.95243,-2.8741 -0.97301,-0.5291 -2.91348,-0.53256 -4.01187,-0.53022 -1.09839,0.002 -1.35469,0.0105 -1.49446,-0.67921 -0.13977,-0.68973 -0.16277,-2.07756 -0.4204,-2.77357 -0.25763,-0.69602 -0.75012,-0.69992 -1.43024,-0.7022 -0.68012,-0.002 -1.54781,-0.003 -1.97585,0.66654 -0.42804,0.66949 -0.41614,2.00881 -0.61313,2.72569 -0.197,0.71688 -0.60303,0.81159 -1.49451,0.86774 -0.89149,0.0561 -2.26693,0.0737 -3.20683,-0.12477 -0.93989,-0.19841 -1.44101,-0.61261 -1.69997,-1.40136 -0.25897,-0.78875 -0.27603,-1.95475 -0.43614,-7.33224 -0.16011,-5.37748 -0.46328,-14.967157 -0.34072,-19.762814 0.12257,-4.795656 0.6706,-4.796823 3.54884,-4.708885 2.87825,0.08794 8.08648,0.264965 10.67255,0.385987 2.58608,0.121022 2.55024,0.185922 2.52752,0.851686 -0.0227,0.665763 -0.0324,1.932142 -0.0255,2.846735 0.007,0.914592 0.0301,1.477338 1.91592,1.742907 1.88583,0.26557 5.6338,0.234227 7.54479,0.205563 1.911,-0.02867 1.98504,-0.0546 2.43793,-0.05913 0.4529,-0.0045 1.28447,0.01229 1.71434,-1.340142 0.42988,-1.352432 0.45831,-4.074263 0.48951,-7.609308 0.0312,-3.535045 0.0652,-7.883073 0.0748,-12.802492 0.01,-4.919419 -0.005,-10.409922 -0.0188,-13.491123 -0.0138,-3.081201 -0.0267,-3.752965 -0.61569,-4.111969 -0.58901,-0.359005 -1.75436,-0.404975 -3.93806,-0.436808 -2.18371,-0.03183 -5.38562,-0.04952 -7.14653,-0.06335 -1.76091,-0.01383 -2.08076,-0.02381 -2.22152,0.876954 -0.14076,0.900763 -0.10216,2.711936 -0.3494,3.638858 -0.24724,0.926921 -0.78053,0.969842 -2.53047,0.997552 -1.74993,0.02771 -4.7164,0.04019 -6.24002,0.02868 -1.52363,-0.01151 -1.60441,-0.04715 -1.66249,-0.522406 -0.0581,-0.475257 -0.0932,-1.390231 0.0692,-3.004818 0.16237,-1.614587 0.52224,-3.928617 0.84769,-5.628337 0.32545,-1.69972 0.61649,-2.785005 0.88875,-3.611858 0.27226,-0.826854 0.52573,-1.395176 0.91256,-2.1326 0.38684,-0.737423 0.90701,-1.643865 1.25742,-2.22356 0.35041,-0.579695 0.53103,-0.832581 0.92467,-0.964573 0.39365,-0.131992 0.99999,-0.143028 1.6718,-0.129509 0.6718,0.01352 1.40901,0.05157 1.79247,-0.567715 0.38345,-0.619289 0.41342,-1.896115 0.44253,-3.056555 0.0291,-1.16044 0.0574,-2.204426 -1.36564,-2.734259 -1.42303,-0.529833 -4.2975,-0.545236 -10.61444,-0.530069 -6.31694,0.01517 -16.075903,0.0609 -21.410299,0.07399 -5.334397,0.01309 -6.244002,-0.0065 -6.642415,0.693908 -0.398413,0.700385 -0.285375,2.120385 -0.210495,3.345521 0.07488,1.225136 0.111612,2.25535 0.768784,2.730466 0.657172,0.475115 1.934495,0.395407 2.742187,0.555939 0.807693,0.160532 1.145722,0.56099 1.469702,1.064175 0.323981,0.503185 0.633973,1.109033 0.983106,1.867644 0.349133,0.758611 0.73741,1.669931 1.003869,2.448472 0.266458,0.778542 0.411151,1.424271 0.568232,2.125038 0.157081,0.700768 0.32654,1.456534 0.501293,2.645031 0.174752,1.188497 0.354824,2.809662 0.338131,4.148507 -0.01669,1.338845 -0.230068,2.395365 0.625185,2.983958 0.855253,0.588593 2.778731,0.70937 4.170521,0.789562 1.39179,0.08019 2.251849,0.1198 -0.528153,0.201667 -2.780002,0.08187 -9.199934,0.206009 -12.794465,0.264978 -3.594531,0.05897 -4.363386,0.05275 -4.725084,0.755753 -0.361699,0.703001 -0.315971,2.114892 -0.558793,2.840881 -0.242821,0.725989 -0.774403,0.766336 -1.546879,0.789394 -0.772475,0.02306 -1.785809,0.02881 -2.723337,0.04434 -0.937528,0.01553 -2.327898,0.05639 -2.545968,1.133049 -0.21807,1.076659 0.207647,3.204259 0.235832,4.277016 0.02818,1.072757 -0.341348,1.090947 -0.978155,1.088383 -0.636806,-0.0026 -1.540866,-0.0259 -2.000894,-0.182367 -0.460027,-0.156466 -0.475747,-0.446326 -0.483747,-1.293077 -0.008,-0.846751 -0.0083,-2.250321 -0.02002,-3.173662 -0.01176,-0.923341 -0.03502,-1.366424 -0.612489,-1.615935 -0.57747,-0.249511 -1.709365,-0.305175 -2.655462,-0.3182 -0.946097,-0.01303 -1.706319,0.01661 -2.05083,0.800503 -0.344511,0.783892 -0.273057,2.321693 -0.233116,6.381089 0.03994,4.059395 0.04838,10.640103 0.185615,14.475821 0.137233,3.835718 0.403175,4.926225 0.777178,5.877793 0.374004,0.951568 0.855935,1.764137 1.441949,2.51836 0.586015,0.754222 1.275998,1.4501 2.139819,2.183616 0.863821,0.733516 1.901392,1.504673 2.555165,2.024428 0.653772,0.519754 0.923744,0.788034 1.152784,1.222051 0.229041,0.434017 0.417301,1.03369 0.476743,2.822108 0.05944,1.788418 -0.0098,4.765503 -0.03825,7.256413 -0.02842,2.4909 -0.01599,4.49546 -0.01391,5.73442 0.0021,1.23897 -0.0062,1.71229 0.484282,1.97441 0.490441,0.26212 1.479251,0.31328 1.973527,0.33886 0.494277,0.0256 0.494044,0.0256 0.950386,0.0312 z"
       id="path457"
       inkscape:path-effect="#path-effect459"
       inkscape:original-d="m 71.202949,113.16476 c 0.91268,0.0114 1.825093,0.0225 2.737244,0.0333 -0.01151,-2.15938 -0.02331,-4.31893 -0.03535,-6.4788 0.02212,-3.88193 0.04398,-7.763975 0.06558,-11.64636 -0.846246,-1.33309 -1.692724,-2.666389 -2.539481,-3.999981 -1.557197,-1.280877 -3.114593,-2.561969 -4.672288,-3.843351 -0.71965,-0.58506 -1.439537,-1.170363 -2.159703,-1.755939 0.02619,-1.749856 0.05212,-3.499908 0.07779,-5.250257 0.01487,-2.603979 0.02949,-5.208116 0.04384,-7.812571 0.01355,-0.397656 0.02684,-0.79556 0.03986,-1.193737 0.600983,0.03286 1.201674,0.06547 1.802115,0.0978 0.973904,0.04423 1.947505,0.08819 2.920862,0.131884 -0.01783,1.634818 -0.03595,3.269305 -0.05432,4.90356 2.07e-4,0.842576 1.48e-4,1.684853 -1.72e-4,2.526884 2.017917,-0.04899 4.035486,-0.09825 6.052833,-0.147769 0.0013,0.06472 0.0021,0.129172 0.0029,0.193362 0.02577,1.308344 0.05129,2.61637 0.07653,3.924157 2.132345,0.01476 4.264342,0.02928 6.396114,0.04352 3.967675,-0.105417 7.934925,-0.211097 11.90199,-0.317044 -0.117732,1.513337 -0.235723,3.026349 -0.353981,4.539128 -0.311528,8.382531 -0.623308,16.764464 -0.93536,25.146294 -0.03336,1.41397 -0.06699,2.82761 -0.100886,4.24102 -1.445106,-0.0738 -2.890417,-0.14786 -4.336023,-0.22219 -0.465826,-0.0411 -0.931897,-0.0825 -1.398241,-0.1241 -0.02842,-0.86126 -0.0571,-1.72274 -0.08605,-2.58451 -0.01053,-0.5656 -0.02135,-1.13144 -0.03241,-1.69756 -0.833924,-0.009 -1.668079,-0.018 -2.502516,-0.0274 -0.489048,-0.0252 -0.978345,-0.0508 -1.467911,-0.0765 -0.02233,1.37 -0.0449,2.73968 -0.06776,4.10912 -1.142587,0.006 -2.285394,0.0116 -3.428489,0.017 -0.962864,-0.0552 -1.925955,-0.11068 -2.889329,-0.16641 -0.0056,1.5081 -0.01148,3.01589 -0.01762,4.52344 -0.0063,1.41118 -0.01281,2.82204 -0.01961,4.23266 2.424798,-0.16513 4.849236,-0.33051 7.273456,-0.49617 6.485105,-0.0585 12.969685,-0.11721 19.454127,-0.1762 6.16246,0.006 12.32439,0.0111 18.48619,0.0163 0.79352,-0.0543 1.58675,-0.10897 2.37972,-0.16385 0.0586,-1.52642 0.11695,-3.05305 0.17503,-4.57997 -0.005,-1.05422 -0.0112,-2.10866 -0.0172,-3.16338 -1.94028,-0.003 -3.88075,-0.007 -5.82151,-0.0104 -0.25603,0.008 -0.51231,0.0166 -0.76886,0.0245 -0.0227,-1.38763 -0.0457,-2.77546 -0.069,-4.16359 -0.49226,-0.004 -0.98475,-0.008 -1.47753,-0.0117 -0.86746,-2.6e-4 -1.73515,-0.001 -2.60313,-0.002 0.0122,1.33965 0.0241,2.67897 0.0357,4.01806 -0.40581,0.095 -0.81184,0.18969 -1.2182,0.28415 -1.37669,0.0178 -2.75212,0.0353 -4.13061,0.0526 -0.50134,-0.41434 -1.00245,-0.82854 -1.50334,-1.2426 -0.0168,-1.16348 -0.0338,-2.32947 -0.0511,-3.49464 -0.30292,-9.58981 -0.6061,-19.179485 -0.90954,-28.769623 0.54832,-7.94e-4 1.09635,-0.0021 1.64414,-0.0035 5.20869,0.1773 10.41692,0.354325 15.62498,0.53109 -0.0356,0.06519 -0.0714,0.130109 -0.10754,0.194768 -0.009,1.266687 -0.019,2.533063 -0.0289,3.799197 0.0236,0.563036 0.0468,1.125784 0.0698,1.68828 3.7484,-0.03108 7.49637,-0.06242 11.24417,-0.09403 0.0743,-0.02566 0.14834,-0.05161 0.22212,-0.07781 0.83189,0.01709 1.66346,0.03391 2.49479,0.05046 0.0287,-2.721676 0.0571,-5.443508 0.0853,-8.165661 0.0342,-4.347937 0.0682,-8.695965 0.10188,-13.044344 -0.0144,-5.490462 -0.0291,-10.980965 -0.044,-16.471844 -0.0127,-0.671526 -0.0256,-1.34329 -0.0387,-2.015334 -1.16512,-0.04571 -2.33047,-0.09168 -3.4961,-0.137912 -3.20177,-0.01744 -6.40368,-0.03511 -9.60591,-0.05306 -0.3196,-0.0097 -0.63945,-0.01971 -0.95956,-0.02994 0.0389,1.811509 0.0775,3.622682 0.11579,5.433628 -0.53305,0.04319 -1.06634,0.08611 -1.5999,0.128765 -2.96633,0.01275 -5.9328,0.02522 -8.8996,0.03744 -0.0805,-0.03537 -0.16129,-0.07101 -0.24232,-0.106913 -0.0348,-0.914747 -0.0699,-1.829721 -0.10525,-2.744981 0.36014,-2.313858 0.72,-4.627888 1.07961,-6.942227 0.29131,-1.085064 0.58235,-2.170348 0.87313,-3.255918 0.25374,-0.568081 0.50721,-1.136404 0.76043,-1.705001 0.52045,-0.906211 1.04062,-1.812653 1.56054,-2.719377 0.18089,-0.252629 0.36151,-0.505516 0.54187,-0.758672 0.60663,-0.01077 1.21298,-0.0218 1.81907,-0.03311 0.7375,0.03832 1.47471,0.07637 2.21167,0.114165 0.0302,-1.276612 0.0602,-2.553438 0.0899,-3.830556 0.0285,-1.043762 0.0568,-2.087747 0.0848,-3.132018 -2.87433,-0.01513 -5.7488,-0.03054 -8.62359,-0.04621 -9.75909,0.046 -19.518052,0.09174 -29.277473,0.137216 -0.909378,-0.01931 -1.818984,-0.03887 -2.72887,-0.0587 0.113308,1.420323 0.226346,2.840323 0.339122,4.260088 0.037,1.030517 0.07373,2.060731 0.110196,3.090698 1.277639,-0.07945 2.554962,-0.159155 3.832048,-0.23913 0.338307,0.400738 0.676333,0.801198 1.014105,1.201398 0.310269,0.606137 0.62026,1.211985 0.929995,1.817579 0.388559,0.911625 0.776835,1.822945 1.164857,2.734022 0.144963,0.646017 0.289655,1.291746 0.434086,1.937221 0.169733,0.75606 0.339191,1.511826 0.508389,2.267341 0.180345,1.621497 0.360415,3.242662 0.540226,4.863598 -0.213123,1.056842 -0.426499,2.113362 -0.640153,3.169686 1.92384,0.121047 3.847317,0.241824 5.77058,0.362339 0.860322,0.03987 1.72038,0.07948 2.580171,0.118826 -6.419778,0.124408 -12.83971,0.24855 -19.260159,0.372432 -0.76862,-0.006 -1.537475,-0.01217 -2.306608,-0.01865 0.04599,1.412213 0.09172,2.824104 0.137186,4.235759 -0.531342,0.04061 -1.062924,0.08096 -1.594784,0.121045 -1.013111,0.006 -2.026444,0.01177 -3.040062,0.01725 -0.86128,0.03077 -2.251954,0.06126 -3.113744,0.0915 0.425998,2.127948 0.851715,4.255548 1.277175,6.382925 -0.369281,0.01844 -0.738814,0.03664 -1.108617,0.05457 -0.90383,-0.02307 -1.80789,-0.04641 -2.712233,-0.07001 -0.01545,-0.289603 -0.03118,-0.579462 -0.04716,-0.869588 -2.1e-5,-1.403363 -2.65e-4,-2.806933 -7.94e-4,-4.210793 -0.02299,-0.442836 -0.04626,-0.885918 -0.06979,-1.329275 -1.131673,-0.0554 -2.263568,-0.111067 -3.395752,-0.166994 -0.759987,0.0299 -1.520209,0.05954 -2.280711,0.08891 0.07172,1.538126 0.143174,3.075927 0.214365,4.613492 0.0087,6.581238 0.01714,13.161946 0.02532,19.742523 0.266218,1.090813 0.532159,2.18132 0.79784,3.271586 0.482217,0.812868 0.964147,1.625438 1.445824,2.437762 0.690274,0.696166 1.380257,1.392044 2.069986,2.087668 1.037879,0.771454 2.07545,1.542611 3.112778,2.31352 0.270248,0.268557 0.540221,0.536836 0.809935,0.804859 0.188531,0.599959 0.376793,1.199632 0.564792,1.799051 -0.06901,2.977475 -0.138284,5.954564 -0.207822,8.931454 0.0127,2.00491 0.02511,4.00947 0.03728,6.0138 -0.008,0.4736 -0.01622,0.94692 -0.02474,1.41998 0.989114,0.0514 1.977922,0.10259 2.966488,0.15349 z"
       sodipodi:nodetypes="ccccccccccccccccccccccccccccccccccccccccccccccccccccccccccccccccccccccccccccccccccccccccccccccccccccccccccccccccccccccccc" /><path
       style="fill:#000000;fill-opacity:1;stroke:#000000;stroke-width:0.264583px;stroke-linecap:butt;stroke-linejoin:miter;stroke-opacity:1"
       d="m 56.774084,66.49886 c -0.0027,0.930269 -0.0082,2.790547 -0.07179,3.711473 -0.06354,0.920926 -0.185433,0.902723 -0.616622,0.881602 -0.431189,-0.02112 -1.171619,-0.04513 -1.698379,-0.06042 -0.52676,-0.01529 -0.839817,-0.02187 -0.984886,-0.496589 -0.14507,-0.474715 -0.121867,-1.41778 -0.109745,-2.342209 0.01212,-0.92443 0.01315,-1.830178 0.300502,-2.280109 0.287348,-0.449931 0.860718,-0.443767 1.405217,-0.440954 0.5445,0.0028 1.060098,0.0023 1.351762,0.01796 0.291664,0.01567 0.359333,0.04741 0.393008,0.0632 0.03367,0.01579 0.03368,0.01578 0.03093,0.946049 z"
       id="path461"
       inkscape:path-effect="#path-effect463"
       inkscape:original-d="m 56.776831,65.568591 c -0.0052,1.860539 -0.01072,3.720817 -0.01648,5.580827 -0.121631,-0.01794 -0.243519,-0.03614 -0.365678,-0.05461 -0.740195,-0.02373 -1.480624,-0.04774 -2.221335,-0.07201 -0.312807,-0.0063 -0.625864,-0.01288 -0.939194,-0.01974 0.02347,-0.942838 0.04667,-1.885903 0.06961,-2.829251 0.0013,-0.905518 0.0024,-1.811266 0.0031,-2.717294 0.573659,0.0064 1.147029,0.01259 1.720149,0.01849 0.515882,-2.65e-4 1.03148,-7.94e-4 1.546823,-0.0016 0.06793,0.032 0.135601,0.06373 0.203004,0.0952 z" /><text
       xml:space="preserve"
       style="font-style:normal;font-weight:normal;font-size:14.3206px;line-height:1.25;font-family:sans-serif;fill:#000000;fill-opacity:1;stroke:none;stroke-width:0.358015"
       x="87.870056"
       y="68.994316"
       id="text3277"><tspan
         sodipodi:role="line"
         id="tspan3275"
         style="font-style:normal;font-variant:normal;font-weight:bold;font-stretch:normal;font-family:'Linux Libertine';-inkscape-font-specification:'Linux Libertine Bold';fill:#000000;fill-opacity:1;stroke-width:0.358015"
         x="87.870056"
         y="68.994316">HW</tspan></text><text
       xml:space="preserve"
       style="font-style:normal;font-weight:normal;font-size:17.518px;line-height:1.25;font-family:sans-serif;fill:#000000;fill-opacity:1;stroke:none;stroke-width:0.437952"
       x="94.732277"
       y="77.802368"
       id="text3331"><tspan
         sodipodi:role="line"
         id="tspan3329"
         style="font-style:normal;font-variant:normal;font-weight:bold;font-stretch:normal;font-family:'Linux Libertine';-inkscape-font-specification:'Linux Libertine Bold';fill:#000000;fill-opacity:1;stroke-width:0.437952"
         x="94.732277"
         y="77.802368">A</tspan></text><text
       xml:space="preserve"
       style="font-style:normal;font-weight:bold;font-size:10.5833px;line-height:1.25;font-family:sans-serif;fill:#000000;fill-opacity:1;stroke:none;stroke-width:0.264583;-inkscape-font-specification:'sans-serif Bold';font-stretch:normal;font-variant:normal"
       x="137.20261"
       y="59.873539"
       id="text4061"><tspan
         sodipodi:role="line"
         id="tspan4059"
         style="stroke-width:0.264583;-inkscape-font-specification:'sans-serif Bold';font-family:sans-serif;font-weight:bold;font-style:normal;font-stretch:normal;font-variant:normal;fill:#000000;fill-opacity:1"
         x="137.20261"
         y="59.873539">0</tspan></text><text
       xml:space="preserve"
       style="font-style:normal;font-weight:bold;font-size:10.5833px;line-height:1.25;font-family:sans-serif;fill:#000000;fill-opacity:1;stroke:none;stroke-width:0.264583;-inkscape-font-specification:'sans-serif Bold';font-stretch:normal;font-variant:normal"
       x="155.19121"
       y="64.175156"
       id="text4061-8"><tspan
         sodipodi:role="line"
         id="tspan4059-9"
         style="stroke-width:0.264583;-inkscape-font-specification:'sans-serif Bold';font-family:sans-serif;font-weight:bold;font-style:normal;font-stretch:normal;font-variant:normal;fill:#000000;fill-opacity:1"
         x="155.19121"
         y="64.175156">0</tspan></text><text
       xml:space="preserve"
       style="font-style:normal;font-weight:bold;font-size:10.5833px;line-height:1.25;font-family:sans-serif;fill:#000000;fill-opacity:1;stroke:none;stroke-width:0.264583;-inkscape-font-specification:'sans-serif Bold';font-stretch:normal;font-variant:normal"
       x="163.31487"
       y="77.990898"
       id="text4061-8-2"><tspan
         sodipodi:role="line"
         id="tspan4059-9-9"
         style="stroke-width:0.264583;-inkscape-font-specification:'sans-serif Bold';font-family:sans-serif;font-weight:bold;font-style:normal;font-stretch:normal;font-variant:normal;fill:#000000;fill-opacity:1"
         x="163.31487"
         y="77.990898">0</tspan></text><text
       xml:space="preserve"
       style="font-style:normal;font-weight:bold;font-size:10.5833px;line-height:1.25;font-family:sans-serif;fill:#000000;fill-opacity:1;stroke:none;stroke-width:0.264583;-inkscape-font-specification:'sans-serif Bold';font-stretch:normal;font-variant:normal"
       x="163.71585"
       y="86.341805"
       id="text4061-8-2-3"><tspan
         sodipodi:role="line"
         id="tspan4059-9-9-1"
         style="stroke-width:0.264583;-inkscape-font-specification:'sans-serif Bold';font-family:sans-serif;font-weight:bold;font-style:normal;font-stretch:normal;font-variant:normal;fill:#000000;fill-opacity:1"
         x="163.71585"
         y="86.341805">0</tspan></text><text
       xml:space="preserve"
       style="font-style:normal;font-weight:bold;font-size:10.5833px;line-height:1.25;font-family:sans-serif;fill:#000000;fill-opacity:1;stroke:none;stroke-width:0.264583;-inkscape-font-specification:'sans-serif Bold';font-stretch:normal;font-variant:normal"
       x="143.62241"
       y="60.616127"
       id="text4065"><tspan
         sodipodi:role="line"
         id="tspan4063"
         style="stroke-width:0.264583;-inkscape-font-specification:'sans-serif Bold';font-family:sans-serif;font-weight:bold;font-style:normal;font-stretch:normal;font-variant:normal;fill:#000000;fill-opacity:1"
         x="143.62241"
         y="60.616127">1</tspan></text><text
       xml:space="preserve"
       style="font-style:normal;font-weight:bold;font-size:10.5833px;line-height:1.25;font-family:sans-serif;fill:#000000;fill-opacity:1;stroke:none;stroke-width:0.264583;-inkscape-font-specification:'sans-serif Bold';font-stretch:normal;font-variant:normal"
       x="149.34097"
       y="61.772625"
       id="text4065-2"><tspan
         sodipodi:role="line"
         id="tspan4063-2"
         style="stroke-width:0.264583;-inkscape-font-specification:'sans-serif Bold';font-family:sans-serif;font-weight:bold;font-style:normal;font-stretch:normal;font-variant:normal;fill:#000000;fill-opacity:1"
         x="149.34097"
         y="61.772625">1</tspan></text><text
       xml:space="preserve"
       style="font-style:normal;font-weight:bold;font-size:10.5833px;line-height:1.25;font-family:sans-serif;fill:#000000;fill-opacity:1;stroke:none;stroke-width:0.264583;-inkscape-font-specification:'sans-serif Bold';font-stretch:normal;font-variant:normal"
       x="144.0081"
       y="70.948639"
       id="text4061-8-9"><tspan
         sodipodi:role="line"
         id="tspan4059-9-4"
         style="stroke-width:0.264583;-inkscape-font-specification:'sans-serif Bold';font-family:sans-serif;font-weight:bold;font-style:normal;font-stretch:normal;font-variant:normal;fill:#000000;fill-opacity:1"
         x="144.0081"
         y="70.948639">0</tspan></text><text
       xml:space="preserve"
       style="font-style:normal;font-weight:bold;font-size:10.5833px;line-height:1.25;font-family:sans-serif;fill:#000000;fill-opacity:1;stroke:none;stroke-width:0.264583;-inkscape-font-specification:'sans-serif Bold';font-stretch:normal;font-variant:normal"
       x="144.11148"
       y="80.951393"
       id="text4061-8-9-0"><tspan
         sodipodi:role="line"
         id="tspan4059-9-4-6"
         style="stroke-width:0.264583;-inkscape-font-specification:'sans-serif Bold';font-family:sans-serif;font-weight:bold;font-style:normal;font-stretch:normal;font-variant:normal;fill:#000000;fill-opacity:1"
         x="144.11148"
         y="80.951393">0</tspan></text><text
       xml:space="preserve"
       style="font-style:normal;font-weight:bold;font-size:10.5833px;line-height:1.25;font-family:sans-serif;fill:#000000;fill-opacity:1;stroke:none;stroke-width:0.264583;-inkscape-font-specification:'sans-serif Bold';font-stretch:normal;font-variant:normal"
       x="137.82552"
       y="70.210846"
       id="text4065-7"><tspan
         sodipodi:role="line"
         id="tspan4063-8"
         style="stroke-width:0.264583;-inkscape-font-specification:'sans-serif Bold';font-family:sans-serif;font-weight:bold;font-style:normal;font-stretch:normal;font-variant:normal;fill:#000000;fill-opacity:1"
         x="137.82552"
         y="70.210846">1</tspan></text><text
       xml:space="preserve"
       style="font-style:normal;font-weight:bold;font-size:10.5833px;line-height:1.25;font-family:sans-serif;fill:#000000;fill-opacity:1;stroke:none;stroke-width:0.264583;-inkscape-font-specification:'sans-serif Bold';font-stretch:normal;font-variant:normal"
       x="150.2751"
       y="72.866959"
       id="text4065-7-0"><tspan
         sodipodi:role="line"
         id="tspan4063-8-3"
         style="stroke-width:0.264583;-inkscape-font-specification:'sans-serif Bold';font-family:sans-serif;font-weight:bold;font-style:normal;font-stretch:normal;font-variant:normal;fill:#000000;fill-opacity:1"
         x="150.2751"
         y="72.866959">1</tspan></text><text
       xml:space="preserve"
       style="font-style:normal;font-weight:bold;font-size:10.5833px;line-height:1.25;font-family:sans-serif;fill:#000000;fill-opacity:1;stroke:none;stroke-width:0.264583;-inkscape-font-specification:'sans-serif Bold';font-stretch:normal;font-variant:normal"
       x="137.92282"
       y="79.937691"
       id="text4065-7-0-1"><tspan
         sodipodi:role="line"
         id="tspan4063-8-3-5"
         style="stroke-width:0.264583;-inkscape-font-specification:'sans-serif Bold';font-family:sans-serif;font-weight:bold;font-style:normal;font-stretch:normal;font-variant:normal;fill:#000000;fill-opacity:1"
         x="137.92282"
         y="79.937691">1</tspan></text><text
       xml:space="preserve"
       style="font-style:normal;font-weight:bold;font-size:10.5833px;line-height:1.25;font-family:sans-serif;fill:#000000;fill-opacity:1;stroke:none;stroke-width:0.264583;-inkscape-font-specification:'sans-serif Bold';font-stretch:normal;font-variant:normal"
       x="161.02644"
       y="69.358086"
       id="text4065-2-7"><tspan
         sodipodi:role="line"
         id="tspan4063-2-3"
         style="stroke-width:0.264583;-inkscape-font-specification:'sans-serif Bold';font-family:sans-serif;font-weight:bold;font-style:normal;font-stretch:normal;font-variant:normal;fill:#000000;fill-opacity:1"
         x="161.02644"
         y="69.358086">1</tspan></text><text
       xml:space="preserve"
       style="font-style:normal;font-weight:bold;font-size:10.5833px;line-height:1.25;font-family:sans-serif;fill:#000000;fill-opacity:1;stroke:none;stroke-width:0.264583;-inkscape-font-specification:'sans-serif Bold';font-stretch:normal;font-variant:normal"
       x="155.50046"
       y="76.604851"
       id="text4065-2-7-0"><tspan
         sodipodi:role="line"
         id="tspan4063-2-3-6"
         style="stroke-width:0.264583;-inkscape-font-specification:'sans-serif Bold';font-family:sans-serif;font-weight:bold;font-style:normal;font-stretch:normal;font-variant:normal;fill:#000000;fill-opacity:1"
         x="155.50046"
         y="76.604851">1</tspan></text><text
       xml:space="preserve"
       style="font-style:normal;font-weight:bold;font-size:10.5833px;line-height:1.25;font-family:sans-serif;fill:#000000;fill-opacity:1;stroke:none;stroke-width:0.264583;-inkscape-font-specification:'sans-serif Bold';font-stretch:normal;font-variant:normal"
       x="149.96623"
       y="85.996742"
       id="text4065-2-7-0-7"><tspan
         sodipodi:role="line"
         id="tspan4063-2-3-6-6"
         style="stroke-width:0.264583;-inkscape-font-specification:'sans-serif Bold';font-family:sans-serif;font-weight:bold;font-style:normal;font-stretch:normal;font-variant:normal;fill:#000000;fill-opacity:1"
         x="149.96623"
         y="85.996742">1</tspan></text><text
       xml:space="preserve"
       style="font-style:normal;font-weight:bold;font-size:10.5833px;line-height:1.25;font-family:sans-serif;fill:#000000;fill-opacity:1;stroke:none;stroke-width:0.264583;-inkscape-font-specification:'sans-serif Bold';font-stretch:normal;font-variant:normal"
       x="156.70575"
       y="86.049271"
       id="text4065-2-7-0-3"><tspan
         sodipodi:role="line"
         id="tspan4063-2-3-6-2"
         style="stroke-width:0.264583;-inkscape-font-specification:'sans-serif Bold';font-family:sans-serif;font-weight:bold;font-style:normal;font-stretch:normal;font-variant:normal;fill:#000000;fill-opacity:1"
         x="156.70575"
         y="86.049271">1</tspan></text><text
       xml:space="preserve"
       style="font-style:normal;font-weight:normal;font-size:14.1111px;line-height:1.25;font-family:sans-serif;fill:#000000;fill-opacity:1;stroke:none;stroke-width:0.264583"
       x="48.597683"
       y="140.32112"
       id="text8178"><tspan
         sodipodi:role="line"
         id="tspan8176"
         style="font-style:normal;font-variant:normal;font-weight:bold;font-stretch:normal;font-size:14.1111px;font-family:'Linux Libertine';-inkscape-font-specification:'Linux Libertine Bold';stroke-width:0.264583;fill:#000000;fill-opacity:1"
         x="48.597683"
         y="140.32112">Hackwerk Aalen</tspan></text><path
       style="fill:none;stroke:#000000;stroke-width:0.99176;stroke-linecap:butt;stroke-linejoin:miter;stroke-dasharray:none;stroke-opacity:1"
       d="m 122.57882,52.927466 c -0.0722,0.385357 -0.14462,0.77152 -0.17952,5.631192 -0.0349,4.859672 -0.0322,14.142905 0.0121,19.040424 0.0443,4.89752 0.13009,5.384509 0.21593,5.87178"
       id="path10515"
       inkscape:path-effect="#path-effect10517"
       inkscape:original-d="m 122.57882,52.927466 c -0.0719,0.385414 -0.14431,0.771577 -0.21715,1.158489 0.003,9.332375 0.006,18.615608 0.008,27.923062 0.0861,0.487548 0.1719,0.974536 0.25753,1.461845"
       sodipodi:nodetypes="cccc" /><path
       style="fill:none;stroke:#000000;stroke-width:0.8235;stroke-linecap:butt;stroke-linejoin:miter;stroke-dasharray:none;stroke-opacity:1"
       d="m 75.333057,58.621563 c -0.09036,0.51011 -0.180749,1.020343 -0.254552,1.529721 -0.0738,0.509378 -0.131006,1.017808 -0.09097,3.794824 0.04004,2.777016 0.177256,7.820173 0.280003,10.612845 0.102748,2.792672 0.171118,3.338286 0.213531,3.771417 0.04241,0.433131 0.05881,0.752779 0.07524,1.07295"
       id="path10515-5"
       inkscape:original-d="m 75.333057,58.621563 c -0.09006,0.510164 -0.180447,1.020396 -0.271155,1.530692 -0.05711,0.508417 -0.114113,1.01687 -0.171608,1.525284 0.13754,5.045578 0.274757,10.088735 0.411624,15.128471 0.0686,0.545586 0.136969,1.0912 0.205117,1.636884 0.0167,0.320594 0.0331,0.640242 0.04928,0.960426"
       inkscape:path-effect="#path-effect10517-2"
       sodipodi:nodetypes="cccccc" /><path
       style="fill:none;stroke:#000000;stroke-width:1.00905;stroke-linecap:butt;stroke-linejoin:miter;stroke-dasharray:none;stroke-opacity:1"
       d="M 84.474189,36.652175 C 95.298562,36.5287 106.12268,36.405227 116.9465,36.281758"
       id="path11361"
       inkscape:path-effect="#path-effect11363"
       inkscape:original-d="M 84.474189,36.652175 C 95.298565,36.528967 106.12268,36.405495 116.9465,36.281758" /><path
       style="fill:#000000;fill-opacity:1;stroke:none;stroke-width:0.264583px;stroke-linecap:butt;stroke-linejoin:miter;stroke-opacity:1"
       d="m 68.200126,65.956647 c 0.208894,-0.147344 0.6273,-0.442468 0.770072,-0.412073 0.142772,0.0304 0.01044,0.385827 -0.05975,0.768343 -0.0702,0.382516 -0.07824,0.791303 -0.06743,1.586328 0.01081,0.795025 0.04043,1.97381 0.07721,2.645115 0.03678,0.671304 0.08055,0.833804 0.124392,0.996624 -0.226764,-0.0097 -0.453248,-0.01935 -1.04074,-0.07431 -0.587492,-0.05495 -1.53568,-0.15519 -2.224248,-0.105135 -0.688568,0.05006 -1.116778,0.250236 -1.29881,0.286686 -0.182032,0.03645 -0.117114,-0.09066 -0.07855,-0.173007 0.03856,-0.08235 0.05013,-0.118686 0.07569,-0.275442 0.02555,-0.156756 0.06546,-0.436532 0.09876,-1.166776 0.03331,-0.730244 0.0602,-1.912294 0.07907,-2.586547 0.01887,-0.674252 0.02962,-0.83679 0.03048,-1.100164 8.58e-4,-0.263373 -0.0082,-0.626677 -0.0024,-1.013158 0.0058,-0.386481 0.0266,-0.794688 0.113361,-0.892211 0.08676,-0.09752 0.239732,0.114915 0.347386,0.372832 0.107653,0.257916 0.16958,0.559513 0.247135,0.750524 0.07756,0.191011 0.169915,0.270145 0.602328,0.300279 0.432412,0.03013 1.199816,0.01111 1.589216,0.04296 0.3894,0.03184 0.398683,0.114311 0.457963,0.118182 0.05928,0.0039 0.165718,-0.06861 0.165719,-0.06861 0,-4e-6 -0.106517,0.07253 -0.16113,0.109716 -0.05461,0.03719 -0.05465,0.03719 0.154247,-0.110151 z"
       id="path9690"
       inkscape:path-effect="#path-effect9692"
       inkscape:original-d="m 67.991232,66.103991 c 0.418001,-0.294387 0.836407,-0.589511 1.254121,-0.884598 -0.132064,0.355696 -0.264392,0.711127 -0.397045,1.066453 -0.0078,0.409592 -0.01584,0.818379 -0.02416,1.227615 0.02993,1.180802 0.05955,2.359587 0.08893,3.539063 0.04411,0.163092 0.131541,0.48846 0.131541,0.48846 0,0 -0.453259,-0.0191 -0.680292,-0.02905 -0.947964,-0.09998 -1.896153,-0.200213 -2.844629,-0.300716 -0.428486,0.200698 -0.856696,0.400879 -1.286182,0.601268 0.06559,-0.127646 0.130508,-0.254758 0.195752,-0.38329 0.01188,-0.03622 0.02345,-0.07256 0.03471,-0.109018 0.03983,-0.277112 0.07973,-0.556889 0.119155,-0.835395 0.02716,-1.182018 0.05406,-2.364068 0.08076,-3.549688 0.01105,-0.162873 0.0218,-0.325411 0.03231,-0.488536 -0.0088,-0.363647 -0.01788,-0.72695 -0.02723,-1.091633 0.02104,-0.408259 0.04181,-0.816466 0.06224,-1.223753 0.152866,0.212193 0.305833,0.42463 0.458811,0.637184 0.06248,0.303273 0.124408,0.60487 0.186279,0.907215 0.09302,0.07974 0.185379,0.158874 0.278072,0.238257 0.772158,-0.01887 1.539562,-0.03789 2.309039,-0.05723 0.0095,0.08274 0.01883,0.165201 0.02785,0.247407 0.109517,-0.07413 0.215954,-0.146617 0.327751,-0.223194 -0.111796,0.07657 -0.218313,0.149101 -0.327747,0.223174 z"
       sodipodi:nodetypes="ccccccccccccccccccccsccc" /></g></svg>
